{
  "description": "test add method format",
  "steps": [
    {
      "it": "should publish on add",
      "action": "expect",
      "what": "PUB {remote_app}.{host}.add {int}"
    },
    {
      "action": "expect",
      "what": "MSG_PAYLOAD: [\"{\"echo\":{\"params\":{\"schema\":{\"items\":[{\"type\":\"string\"}],\"type\":\"array\"}},\"returns\":{\"schema\":{\"type\":\"string\"}}}}\"]"
    }
  ]
}
